{"establishments":[{"FHRSID":357168,"LocalAuthorityBusinessID":"00000/0000/0/548","BusinessName":"Abbeyfield","BusinessType":"Caring Premises","BusinessTypeID":5,"AddressLine1":"114 Bromley Road","AddressLine2":"Beckenham","AddressLine3":"","AddressLine4":"","PostCode":"BR3 5NU","Phone":"","RatingValue":"5","RatingKey":"fhrs_5_en-gb","RatingDate":"2014-01-31T00:00:00","LocalAuthorityCode":"505","LocalAuthorityName":"Bromley","LocalAuthorityWebSite":"http://www.bromley.gov.uk","LocalAuthorityEmailAddress":"food@bromley.gov.uk","scores":{"Hygiene":0,"Structural":5,"ConfidenceInManagement":5},"SchemeType":"FHRS","geocode":{"longitude":"-0.015839","latitude":"51.406208"},"RightToReply":"","Distance":0.80621585700811249,"NewRatingPending":false,"links":[]},{"FHRSID":357293,"LocalAuthorityBusinessID":"00000/0000/2/572","BusinessName":"Abbeyfield","BusinessType":"Caring Premises","BusinessTypeID":5,"AddressLine1":"20 Shortlands Road","AddressLine2":"Shortlands","AddressLine3":"Bromley","AddressLine4":"","PostCode":"BR2 0JD","Phone":"","RatingValue":"5","RatingKey":"fhrs_5_en-gb","RatingDate":"2011-04-19T00:00:00","LocalAuthorityCode":"505","LocalAuthorityName":"Bromley","LocalAuthorityWebSite":"http://www.bromley.gov.uk","LocalAuthorityEmailAddress":"food@bromley.gov.uk","scores":{"Hygiene":5,"Structural":0,"ConfidenceInManagement":0},"SchemeType":"FHRS","geocode":{"longitude":"-0.00029","latitude":"51.404352"},"RightToReply":"","Distance":0.3008489320588531,"NewRatingPending":false,"links":[]},{"FHRSID":357276,"LocalAuthorityBusinessID":"00000/0000/2/287","BusinessName":"Abbeyfield","BusinessType":"Caring Premises","BusinessTypeID":5,"AddressLine1":"8 Oakwood Avenue","AddressLine2":"Beckenham","AddressLine3":"","AddressLine4":"","PostCode":"BR3 6PJ","Phone":"","RatingValue":"5","RatingKey":"fhrs_5_en-gb","RatingDate":"2012-03-09T00:00:00","LocalAuthorityCode":"505","LocalAuthorityName":"Bromley","LocalAuthorityWebSite":"http://www.bromley.gov.uk","LocalAuthorityEmailAddress":"food@bromley.gov.uk","scores":{"Hygiene":5,"Structural":0,"ConfidenceInManagement":5},"SchemeType":"FHRS","geocode":{"longitude":"-0.012033","latitude":"51.404444"},"RightToReply":"","Distance":0.60268830499171766,"NewRatingPending":false,"links":[]},{"FHRSID":357390,"LocalAuthorityBusinessID":"00000/0000/4/358","BusinessName":"Bank Of America","BusinessType":"Restaurant/Cafe/Canteen","BusinessTypeID":1,"AddressLine1":"Bank Of America House","AddressLine2":"26 Elmfield Road","AddressLine3":"Bromley","AddressLine4":"","PostCode":"BR1 1LR","Phone":"","RatingValue":"5","RatingKey":"fhrs_5_en-gb","RatingDate":"2013-10-07T00:00:00","LocalAuthorityCode":"505","LocalAuthorityName":"Bromley","LocalAuthorityWebSite":"http://www.bromley.gov.uk","LocalAuthorityEmailAddress":"food@bromley.gov.uk","scores":{"Hygiene":5,"Structural":5,"ConfidenceInManagement":5},"SchemeType":"FHRS","geocode":{"longitude":"0.017703","latitude":"51.400905"},"RightToReply":"","Distance":0.765646504111461,"NewRatingPending":false,"links":[]},{"FHRSID":358653,"LocalAuthorityBusinessID":"11/00113/MIXED","BusinessName":"Beezoo Espresso Bar Ltd","BusinessType":"Takeaway/sandwich shop","BusinessTypeID":7844,"AddressLine1":"Kiosk On Platforms 3 And 4","AddressLine2":"Bromley South Railway Station","AddressLine3":"High Street","AddressLine4":"Bromley","PostCode":"BR1 1LX","Phone":"","RatingValue":"5","RatingKey":"fhrs_5_en-gb","RatingDate":"2015-04-22T00:00:00","LocalAuthorityCode":"505","LocalAuthorityName":"Bromley","LocalAuthorityWebSite":"http://www.bromley.gov.uk","LocalAuthorityEmailAddress":"food@bromley.gov.uk","scores":{"Hygiene":5,"Structural":5,"ConfidenceInManagement":5},"SchemeType":"FHRS","geocode":{"longitude":"0.01738","latitude":"51.400083"},"RightToReply":"","Distance":0.74920229232463742,"NewRatingPending":false,"links":[]},{"FHRSID":357395,"LocalAuthorityBusinessID":"00000/0000/4/479","BusinessName":"Belgo","BusinessType":"Restaurant/Cafe/Canteen","BusinessTypeID":1,"AddressLine1":"242 Intu Bromley The Glades Shoppin","AddressLine2":"High Street","AddressLine3":"Bromley","AddressLine4":"","PostCode":"BR1 1DN","Phone":"","RatingValue":"5","RatingKey":"fhrs_5_en-gb","RatingDate":"2014-02-28T00:00:00","LocalAuthorityCode":"505","LocalAuthorityName":"Bromley","LocalAuthorityWebSite":"http://www.bromley.gov.uk","LocalAuthorityEmailAddress":"food@bromley.gov.uk","scores":{"Hygiene":5,"Structural":5,"ConfidenceInManagement":5},"SchemeType":"FHRS","geocode":{"longitude":"0.015739","latitude":"51.402665"},"RightToReply":"","Distance":0.70294181277170964,"NewRatingPending":false,"links":[]},{"FHRSID":778375,"LocalAuthorityBusinessID":"15/00041/MIXED","BusinessName":"Benito's Hat","BusinessType":"Restaurant/Cafe/Canteen","BusinessTypeID":1,"AddressLine1":"4 - 5 Market Square","AddressLine2":"Bromley","AddressLine3":"","AddressLine4":"","PostCode":"BR1 1NA","Phone":"","RatingValue":"5","RatingKey":"fhrs_5_en-gb","RatingDate":"2015-06-19T00:00:00","LocalAuthorityCode":"505","LocalAuthorityName":"Bromley","LocalAuthorityWebSite":"http://www.bromley.gov.uk","LocalAuthorityEmailAddress":"food@bromley.gov.uk","scores":{"Hygiene":0,"Structural":5,"ConfidenceInManagement":5},"SchemeType":"FHRS","geocode":{"longitude":"0.015521","latitude":"51.405573"},"RightToReply":"","Distance":0.77185402455705954,"NewRatingPending":false,"links":[]},{"FHRSID":357478,"LocalAuthorityBusinessID":"00000/0000/6/183","BusinessName":"Bertha James Day Centre","BusinessType":"Caring Premises","BusinessTypeID":5,"AddressLine1":"34 Masons Hill","AddressLine2":"Bromley","AddressLine3":"","AddressLine4":"","PostCode":"BR2 9HJ","Phone":"","RatingValue":"5","RatingKey":"fhrs_5_en-gb","RatingDate":"2015-01-26T00:00:00","LocalAuthorityCode":"505","LocalAuthorityName":"Bromley","LocalAuthorityWebSite":"http://www.bromley.gov.uk","LocalAuthorityEmailAddress":"food@bromley.gov.uk","scores":{"Hygiene":0,"Structural":0,"ConfidenceInManagement":0},"SchemeType":"FHRS","geocode":{"longitude":"0.021911","latitude":"51.396893"},"RightToReply":"","Distance":0.968638871181555,"NewRatingPending":false,"links":[]},{"FHRSID":357568,"LocalAuthorityBusinessID":"00000/0000/7/856","BusinessName":"Bibas Night Club","BusinessType":"Pub/bar/nightclub","BusinessTypeID":7843,"AddressLine1":"29A Widmore Road","AddressLine2":"Bromley","AddressLine3":"","AddressLine4":"","PostCode":"BR1 1RW","Phone":"","RatingValue":"5","RatingKey":"fhrs_5_en-gb","RatingDate":"2012-11-28T00:00:00","LocalAuthorityCode":"505","LocalAuthorityName":"Bromley","LocalAuthorityWebSite":"http://www.bromley.gov.uk","LocalAuthorityEmailAddress":"food@bromley.gov.uk","scores":{"Hygiene":5,"Structural":0,"ConfidenceInManagement":5},"SchemeType":"FHRS","geocode":{"longitude":"0.016904","latitude":"51.406269"},"RightToReply":"","Distance":0.847586126369915,"NewRatingPending":false,"links":[]},{"FHRSID":357171,"LocalAuthorityBusinessID":"00000/0000/0/563","BusinessName":"Bishop Challoner School - Nourish Contract Catering","BusinessType":"School/college/university","BusinessTypeID":7845,"AddressLine1":"Bishop Challoner School","AddressLine2":"228 Bromley Road","AddressLine3":"Bromley","AddressLine4":"","PostCode":"BR2 0BS","Phone":"","RatingValue":"5","RatingKey":"fhrs_5_en-gb","RatingDate":"2014-01-10T00:00:00","LocalAuthorityCode":"505","LocalAuthorityName":"Bromley","LocalAuthorityWebSite":"http://www.bromley.gov.uk","LocalAuthorityEmailAddress":"food@bromley.gov.uk","scores":{"Hygiene":5,"Structural":5,"ConfidenceInManagement":5},"SchemeType":"FHRS","geocode":{"longitude":"-0.003716","latitude":"51.406901"},"RightToReply":"","Distance":0.50289670951114851,"NewRatingPending":false,"links":[]}],"meta":{"dataSource":"Lucene","extractDate":"0001-01-01T00:00:00","itemCount":0,"returncode":"OK","totalCount":229,"totalPages":23,"pageSize":10,"pageNumber":1},"links":[]}